\relax 
\AC@reset@newl@bel
\catcode `"\active 
\providecommand\@newglossary[4]{}
\@newglossary{main}{glg}{gls}{glo}
\select@language{english}
\@writefile{toc}{\select@language{english}}
\@writefile{lof}{\select@language{english}}
\@writefile{lot}{\select@language{english}}
\@writefile{toc}{\contentsline {part}{I\hspace  {1em}Einleitug}{2}}
\@writefile{toc}{\contentsline {chapter}{\numberline {1}Problemstellung}{3}}
\@writefile{lof}{\addvspace {10\p@ }}
\@writefile{lot}{\addvspace {10\p@ }}
\@writefile{toc}{\contentsline {chapter}{\numberline {2}Anforderungen an das System}{4}}
\@writefile{lof}{\addvspace {10\p@ }}
\@writefile{lot}{\addvspace {10\p@ }}
\@writefile{toc}{\contentsline {section}{\numberline {2.1}Pix2Code}{4}}
\@writefile{toc}{\contentsline {subsection}{\numberline {2.1.1}Probleme mit Pix2Code}{4}}
\@writefile{toc}{\contentsline {subsubsection}{Fehlen einer Ocr Pipeline}{4}}
\@writefile{toc}{\contentsline {subsubsection}{Keine passende Sprachunterst\IeC {\"u}tzung}{5}}
\@writefile{toc}{\contentsline {subsubsection}{Nutzbare Teile}{5}}
\@writefile{toc}{\contentsline {section}{\numberline {2.2}Alexnet}{5}}
\@writefile{toc}{\contentsline {chapter}{\numberline {3}Neurale Netze/Deep Learning}{6}}
\@writefile{lof}{\addvspace {10\p@ }}
\@writefile{lot}{\addvspace {10\p@ }}
\@writefile{toc}{\contentsline {subsection}{\numberline {3.0.1}Bilderkennung mit neuralen Netzten}{6}}
\@writefile{toc}{\contentsline {subsubsection}{Wie "sieht" ein Computer ein Bild}{6}}
\@writefile{toc}{\contentsline {subsubsection}{Convoluted Neural Networks}{6}}
\@writefile{toc}{\contentsline {subsubsection}{Convolutional Layer}{6}}
\@writefile{toc}{\contentsline {subsubsection}{Pooling Layers}{6}}
\@writefile{toc}{\contentsline {subsubsection}{fully connected Layers}{6}}
\@writefile{toc}{\contentsline {chapter}{\numberline {4}Pix2Code}{7}}
\@writefile{lof}{\addvspace {10\p@ }}
\@writefile{lot}{\addvspace {10\p@ }}
\@writefile{toc}{\contentsline {chapter}{\numberline {5}Anwendung des Projektes}{8}}
\@writefile{lof}{\addvspace {10\p@ }}
\@writefile{lot}{\addvspace {10\p@ }}
\@writefile{toc}{\contentsline {chapter}{\numberline {6}Ergebniss der Anwendung}{9}}
\@writefile{lof}{\addvspace {10\p@ }}
\@writefile{lot}{\addvspace {10\p@ }}
\@writefile{toc}{\contentsline {subsection}{\numberline {6.0.1}Probleme mit Pix2Code}{9}}
\@writefile{toc}{\contentsline {chapter}{\numberline {7}Fazit}{10}}
\@writefile{lof}{\addvspace {10\p@ }}
\@writefile{lot}{\addvspace {10\p@ }}
