This is BibTeX, Version 0.99dThe top-level auxiliary file: thesis.aux
The style file: biblatex.bst
Database file #1: thesis-blx.bib
Database file #2: bibtex.bib
I was expecting a `,' or a `}'---line 66 of file bibtex.bib
 :  
 :  url = {http://www.cs.toronto.edu/~rsalakhu/papers/srivastava14a.pdf}
(Error may have been on previous line)
I'm skipping whatever remains of this entry
Biblatex version: 3.3
(There was 1 error message)
