\relax 
\providecommand\hyper@newdestlabel[2]{}
\providecommand*\new@tpo@label[2]{}
\catcode `"\active 
\providecommand\HyperFirstAtBeginDocument{\AtBeginDocument}
\HyperFirstAtBeginDocument{\ifx\hyper@anchor\@undefined
\global\let\oldcontentsline\contentsline
\gdef\contentsline#1#2#3#4{\oldcontentsline{#1}{#2}{#3}}
\global\let\oldnewlabel\newlabel
\gdef\newlabel#1#2{\newlabelxx{#1}#2}
\gdef\newlabelxx#1#2#3#4#5#6{\oldnewlabel{#1}{{#2}{#3}}}
\AtEndDocument{\ifx\hyper@anchor\@undefined
\let\contentsline\oldcontentsline
\let\newlabel\oldnewlabel
\fi}
\fi}
\global\let\hyper@last\relax 
\gdef\HyperFirstAtBeginDocument#1{#1}
\providecommand\HyField@AuxAddToFields[1]{}
\providecommand\HyField@AuxAddToCoFields[2]{}
\bibstyle{biblatex}
\bibdata{thesis-blx,bibtex}
\citation{biblatex-control}
\abx@aux@sortscheme{nty}
\abx@aux@refcontext{nty/global/}
\@writefile{toc}{\boolfalse {citerequest}\boolfalse {citetracker}\boolfalse {pagetracker}\boolfalse {backtracker}\relax }
\@writefile{lof}{\boolfalse {citerequest}\boolfalse {citetracker}\boolfalse {pagetracker}\boolfalse {backtracker}\relax }
\@writefile{lot}{\boolfalse {citerequest}\boolfalse {citetracker}\boolfalse {pagetracker}\boolfalse {backtracker}\relax }
\select@language{ngerman}
\@writefile{toc}{\defcounter {refsection}{0}\relax }\@writefile{toc}{\select@language{ngerman}}
\@writefile{lof}{\defcounter {refsection}{0}\relax }\@writefile{lof}{\select@language{ngerman}}
\@writefile{lot}{\defcounter {refsection}{0}\relax }\@writefile{lot}{\select@language{ngerman}}
\@writefile{toc}{\defcounter {refsection}{0}\relax }\@writefile{toc}{\contentsline {part}{\numberline {I}Einleitung}{1}{part.1}}
\@writefile{toc}{\defcounter {refsection}{0}\relax }\@writefile{toc}{\contentsline {chapter}{\numberline {1}Einleitung}{2}{chapter.1}}
\@writefile{lof}{\defcounter {refsection}{0}\relax }\@writefile{lof}{\addvspace {10\p@ }}
\@writefile{lot}{\defcounter {refsection}{0}\relax }\@writefile{lot}{\addvspace {10\p@ }}
\@writefile{lol}{\defcounter {refsection}{0}\relax }\@writefile{lol}{\addvspace {10\p@ }}
\@writefile{toc}{\defcounter {refsection}{0}\relax }\@writefile{toc}{\contentsline {section}{\numberline {1.1}Zielsetzung}{2}{section.1.1}}
\@writefile{toc}{\defcounter {refsection}{0}\relax }\@writefile{toc}{\contentsline {section}{\numberline {1.2}Aufbau der Arbeit}{3}{section.1.2}}
\@writefile{toc}{\defcounter {refsection}{0}\relax }\@writefile{toc}{\contentsline {part}{\numberline {II}Grundlagen}{4}{part.2}}
\@writefile{toc}{\defcounter {refsection}{0}\relax }\@writefile{toc}{\contentsline {chapter}{\numberline {2}Anforderungen}{5}{chapter.2}}
\@writefile{lof}{\defcounter {refsection}{0}\relax }\@writefile{lof}{\addvspace {10\p@ }}
\@writefile{lot}{\defcounter {refsection}{0}\relax }\@writefile{lot}{\addvspace {10\p@ }}
\@writefile{lol}{\defcounter {refsection}{0}\relax }\@writefile{lol}{\addvspace {10\p@ }}
\@writefile{toc}{\defcounter {refsection}{0}\relax }\@writefile{toc}{\contentsline {section}{\numberline {2.1}Anforderungen an das System}{5}{section.2.1}}
\@writefile{toc}{\defcounter {refsection}{0}\relax }\@writefile{toc}{\contentsline {subsection}{\numberline {2.1.1}Code von Nutzerschnittstellenelementen auf Webseiten}{5}{subsection.2.1.1}}
\@writefile{toc}{\defcounter {refsection}{0}\relax }\@writefile{toc}{\contentsline {subsection}{\numberline {2.1.2}Arten von Nutzerschnittstellenelementen}{6}{subsection.2.1.2}}
\@writefile{toc}{\defcounter {refsection}{0}\relax }\@writefile{toc}{\contentsline {subsubsection}{\nonumberline Knopf-/ Klick-Elemente}{6}{section*.5}}
\@writefile{lof}{\defcounter {refsection}{0}\relax }\@writefile{lof}{\contentsline {figure}{\numberline {\relax 2.1}{\ignorespaces Beispiel eines Knopf Elements}}{6}{figure.caption.6}}
\providecommand*\caption@xref[2]{\@setref\relax\@undefined{#1}}
\newlabel{fig:button}{{\relax 2.1}{6}{Beispiel eines Knopf Elements}{figure.caption.6}{}}
\@writefile{toc}{\defcounter {refsection}{0}\relax }\@writefile{toc}{\contentsline {subsubsection}{\nonumberline Freitexteingabefelder}{6}{section*.7}}
\@writefile{lof}{\defcounter {refsection}{0}\relax }\@writefile{lof}{\contentsline {figure}{\numberline {\relax 2.2}{\ignorespaces Beispiel eines Freitext Eingabe Feldes}}{6}{figure.caption.8}}
\newlabel{fig:freitext_inputfelder}{{\relax 2.2}{6}{Beispiel eines Freitext Eingabe Feldes}{figure.caption.8}{}}
\@writefile{toc}{\defcounter {refsection}{0}\relax }\@writefile{toc}{\contentsline {subsubsection}{\nonumberline Bin\IeC {\"a}re Eingabefelder}{7}{section*.9}}
\@writefile{toc}{\defcounter {refsection}{0}\relax }\@writefile{toc}{\contentsline {paragraph}{\nonumberline Kontrollbox}{7}{section*.10}}
\@writefile{lof}{\defcounter {refsection}{0}\relax }\@writefile{lof}{\contentsline {figure}{\numberline {\relax 2.3}{\ignorespaces Beispiel f\IeC {\"u}r Kontrollboxen}}{7}{figure.caption.11}}
\newlabel{fig:Checkboxen}{{\relax 2.3}{7}{Beispiel für Kontrollboxen}{figure.caption.11}{}}
\@writefile{toc}{\defcounter {refsection}{0}\relax }\@writefile{toc}{\contentsline {paragraph}{\nonumberline Radiobutton}{7}{section*.12}}
\@writefile{lof}{\defcounter {refsection}{0}\relax }\@writefile{lof}{\contentsline {figure}{\numberline {\relax 2.4}{\ignorespaces Beispiel f\IeC {\"u}r Radiobuttons}}{7}{figure.caption.13}}
\newlabel{fig:Radiobuttions}{{\relax 2.4}{7}{Beispiel für Radiobuttons}{figure.caption.13}{}}
\@writefile{toc}{\defcounter {refsection}{0}\relax }\@writefile{toc}{\contentsline {subsubsection}{\nonumberline Dropdown-Liste}{7}{section*.14}}
\@writefile{lof}{\defcounter {refsection}{0}\relax }\@writefile{lof}{\contentsline {figure}{\numberline {\relax 2.5}{\ignorespaces Beispiel eines Dropdown-Feldes}}{7}{figure.caption.15}}
\newlabel{fig:Drop_Down}{{\relax 2.5}{7}{Beispiel eines Dropdown-Feldes}{figure.caption.15}{}}
\@writefile{toc}{\defcounter {refsection}{0}\relax }\@writefile{toc}{\contentsline {subsubsection}{\nonumberline Datumswahl-Element}{8}{section*.16}}
\@writefile{lof}{\defcounter {refsection}{0}\relax }\@writefile{lof}{\contentsline {figure}{\numberline {\relax 2.6}{\ignorespaces Beispiel eines Datumsauswahl Feldes}}{8}{figure.caption.17}}
\newlabel{fig:Datum}{{\relax 2.6}{8}{Beispiel eines Datumsauswahl Feldes}{figure.caption.17}{}}
\@writefile{toc}{\defcounter {refsection}{0}\relax }\@writefile{toc}{\contentsline {section}{\numberline {2.2}Design der Nutzerschnittstellen}{8}{section.2.2}}
\@writefile{toc}{\defcounter {refsection}{0}\relax }\@writefile{toc}{\contentsline {section}{\numberline {2.3}Zusammenfassung von Nutzerschnittstellenelementen}{8}{section.2.3}}
\@writefile{toc}{\defcounter {refsection}{0}\relax }\@writefile{toc}{\contentsline {part}{\numberline {III}Technik}{9}{part.3}}
\@writefile{toc}{\defcounter {refsection}{0}\relax }\@writefile{toc}{\contentsline {chapter}{\numberline {3}Technische Komponenten}{10}{chapter.3}}
\@writefile{lof}{\defcounter {refsection}{0}\relax }\@writefile{lof}{\addvspace {10\p@ }}
\@writefile{lot}{\defcounter {refsection}{0}\relax }\@writefile{lot}{\addvspace {10\p@ }}
\@writefile{lol}{\defcounter {refsection}{0}\relax }\@writefile{lol}{\addvspace {10\p@ }}
\@writefile{toc}{\defcounter {refsection}{0}\relax }\@writefile{toc}{\contentsline {section}{\numberline {3.1}L\IeC {\"o}sungsansatz}{10}{section.3.1}}
\@writefile{toc}{\defcounter {refsection}{0}\relax }\@writefile{toc}{\contentsline {section}{\numberline {3.2}Maschinelles Lernen}{10}{section.3.2}}
\newlabel{ML}{{3.2}{10}{Maschinelles Lernen}{section.3.2}{}}
\@writefile{toc}{\defcounter {refsection}{0}\relax }\@writefile{toc}{\contentsline {subsection}{\numberline {3.2.1}Lernvorgang}{11}{subsection.3.2.1}}
\@writefile{toc}{\defcounter {refsection}{0}\relax }\@writefile{toc}{\contentsline {paragraph}{\nonumberline \IeC {\"U}berwachtes Lernen}{11}{section*.18}}
\@writefile{toc}{\defcounter {refsection}{0}\relax }\@writefile{toc}{\contentsline {paragraph}{\nonumberline Un\IeC {\"u}berwachtes Lernen}{11}{section*.19}}
\citation{MSE}
\abx@aux@cite{MSE}
\abx@aux@segm{0}{0}{MSE}
\citation{PML}
\abx@aux@cite{PML}
\abx@aux@segm{0}{0}{PML}
\citation{loss}
\abx@aux@cite{loss}
\abx@aux@segm{0}{0}{loss}
\citation{cost}
\abx@aux@cite{cost}
\abx@aux@segm{0}{0}{cost}
\@writefile{toc}{\defcounter {refsection}{0}\relax }\@writefile{toc}{\contentsline {subsection}{\numberline {3.2.2}Metriken}{12}{subsection.3.2.2}}
\@writefile{toc}{\defcounter {refsection}{0}\relax }\@writefile{toc}{\contentsline {paragraph}{\nonumberline Mittlerer absoluter Fehler}{12}{section*.20}}
\@writefile{toc}{\defcounter {refsection}{0}\relax }\@writefile{toc}{\contentsline {paragraph}{\nonumberline Mittlere quadratische Abweichung}{12}{section*.21}}
\@writefile{toc}{\defcounter {refsection}{0}\relax }\@writefile{toc}{\contentsline {paragraph}{\nonumberline Genauigkeit}{12}{section*.22}}
\citation{cost}
\abx@aux@segm{0}{0}{cost}
\@writefile{toc}{\defcounter {refsection}{0}\relax }\@writefile{toc}{\contentsline {paragraph}{\nonumberline Verlust}{13}{section*.23}}
\@writefile{toc}{\defcounter {refsection}{0}\relax }\@writefile{toc}{\contentsline {subsection}{\numberline {3.2.3}Gradienten}{13}{subsection.3.2.3}}
\@writefile{lof}{\defcounter {refsection}{0}\relax }\@writefile{lof}{\contentsline {figure}{\numberline {\relax 3.1}{\ignorespaces Darstellung einer Verlustfunktion mit Gradientenabstieg}}{13}{figure.caption.24}}
\newlabel{fig:Kurve}{{\relax 3.1}{13}{Darstellung einer Verlustfunktion mit Gradientenabstieg}{figure.caption.24}{}}
\citation{over}
\abx@aux@cite{over}
\abx@aux@segm{0}{0}{over}
\citation{over}
\abx@aux@segm{0}{0}{over}
\citation{Hopfield2554}
\abx@aux@cite{Hopfield2554}
\abx@aux@segm{0}{0}{Hopfield2554}
\@writefile{toc}{\defcounter {refsection}{0}\relax }\@writefile{toc}{\contentsline {subsection}{\numberline {3.2.4}Hyperparameter}{14}{subsection.3.2.4}}
\@writefile{toc}{\defcounter {refsection}{0}\relax }\@writefile{toc}{\contentsline {subsection}{\numberline {3.2.5}Problematiken}{14}{subsection.3.2.5}}
\@writefile{toc}{\defcounter {refsection}{0}\relax }\@writefile{toc}{\contentsline {paragraph}{\nonumberline \IeC {\"U}beranpassung}{14}{section*.25}}
\@writefile{toc}{\defcounter {refsection}{0}\relax }\@writefile{toc}{\contentsline {paragraph}{\nonumberline Unteranpassung}{14}{section*.26}}
\citation{Goodfellow-et-al-2016}
\abx@aux@cite{Goodfellow-et-al-2016}
\abx@aux@segm{0}{0}{Goodfellow-et-al-2016}
\citation{Goodfellow-et-al-2016}
\abx@aux@segm{0}{0}{Goodfellow-et-al-2016}
\citation{PML}
\abx@aux@segm{0}{0}{PML}
\citation{hold}
\abx@aux@cite{hold}
\abx@aux@segm{0}{0}{hold}
\citation{PML}
\abx@aux@segm{0}{0}{PML}
\citation{Percep}
\abx@aux@cite{Percep}
\abx@aux@segm{0}{0}{Percep}
\citation{lin}
\abx@aux@cite{lin}
\abx@aux@segm{0}{0}{lin}
\@writefile{toc}{\defcounter {refsection}{0}\relax }\@writefile{toc}{\contentsline {section}{\numberline {3.3}Neuronale Netze/Deep Learning}{15}{section.3.3}}
\@writefile{toc}{\defcounter {refsection}{0}\relax }\@writefile{toc}{\contentsline {subsection}{\numberline {3.3.1}Neuronale Netze}{15}{subsection.3.3.1}}
\@writefile{toc}{\defcounter {refsection}{0}\relax }\@writefile{toc}{\contentsline {paragraph}{\nonumberline Gradienten}{15}{section*.27}}
\@writefile{toc}{\defcounter {refsection}{0}\relax }\@writefile{toc}{\contentsline {subsection}{\numberline {3.3.2}Perzeptron}{15}{subsection.3.3.2}}
\newlabel{Perceptorn}{{3.3.2}{15}{Perzeptron}{subsection.3.3.2}{}}
\citation{PML}
\abx@aux@segm{0}{0}{PML}
\@writefile{lof}{\defcounter {refsection}{0}\relax }\@writefile{lof}{\contentsline {figure}{\numberline {\relax 3.2}{\ignorespaces Darstellung eines einzelnen Neurons}}{16}{figure.caption.28}}
\newlabel{fig:perceptron}{{\relax 3.2}{16}{Darstellung eines einzelnen Neurons}{figure.caption.28}{}}
\@writefile{toc}{\defcounter {refsection}{0}\relax }\@writefile{toc}{\contentsline {paragraph}{\nonumberline Einlagiges Perzeptron}{16}{section*.29}}
\newlabel{MLP}{{3.3.2}{16}{Mehrlagiges Perzeptron}{section*.30}{}}
\@writefile{toc}{\defcounter {refsection}{0}\relax }\@writefile{toc}{\contentsline {paragraph}{\nonumberline Mehrlagiges Perzeptron}{16}{section*.30}}
\@writefile{lof}{\defcounter {refsection}{0}\relax }\@writefile{lof}{\contentsline {figure}{\numberline {\relax 3.3}{\ignorespaces Darstellung eines MLP}}{16}{figure.caption.31}}
\newlabel{fig:MLP}{{\relax 3.3}{16}{Darstellung eines MLP}{figure.caption.31}{}}
\citation{PML}
\abx@aux@segm{0}{0}{PML}
\citation{PML}
\abx@aux@segm{0}{0}{PML}
\@writefile{toc}{\defcounter {refsection}{0}\relax }\@writefile{toc}{\contentsline {subsection}{\numberline {3.3.3}Bilderkennung mit maschinellem Lernen}{17}{subsection.3.3.3}}
\@writefile{toc}{\defcounter {refsection}{0}\relax }\@writefile{toc}{\contentsline {subsection}{\numberline {3.3.4}Maschinelles Sehen}{17}{subsection.3.3.4}}
\@writefile{lof}{\defcounter {refsection}{0}\relax }\@writefile{lof}{\contentsline {figure}{\numberline {\relax 3.4}{\ignorespaces Schematische Darstellung einer graustufen Abbildung in einer Matrix}}{17}{figure.caption.32}}
\newlabel{fig:compvis}{{\relax 3.4}{17}{Schematische Darstellung einer graustufen Abbildung in einer Matrix}{figure.caption.32}{}}
\citation{PML}
\abx@aux@segm{0}{0}{PML}
\citation{PML}
\abx@aux@segm{0}{0}{PML}
\citation{NIPS2012_4824}
\abx@aux@cite{NIPS2012_4824}
\abx@aux@segm{0}{0}{NIPS2012_4824}
\citation{PML}
\abx@aux@segm{0}{0}{PML}
\@writefile{toc}{\defcounter {refsection}{0}\relax }\@writefile{toc}{\contentsline {subsection}{\numberline {3.3.5}Deep Learning}{18}{subsection.3.3.5}}
\@writefile{toc}{\defcounter {refsection}{0}\relax }\@writefile{toc}{\contentsline {subsubsection}{\nonumberline Convoluted Neural Networks}{18}{section*.33}}
\@writefile{lof}{\defcounter {refsection}{0}\relax }\@writefile{lof}{\contentsline {figure}{\numberline {\relax 3.5}{\ignorespaces Typisches CNN}}{18}{figure.caption.34}}
\newlabel{fig:cnn}{{\relax 3.5}{18}{Typisches CNN}{figure.caption.34}{}}
\@writefile{toc}{\defcounter {refsection}{0}\relax }\@writefile{toc}{\contentsline {subsubsection}{\nonumberline Faltungs-schichten}{18}{section*.35}}
\@writefile{lof}{\defcounter {refsection}{0}\relax }\@writefile{lof}{\contentsline {figure}{\numberline {\relax 3.6}{\ignorespaces Beispiel einer convolution Operation}}{19}{figure.caption.36}}
\newlabel{fig:convolution}{{\relax 3.6}{19}{Beispiel einer convolution Operation}{figure.caption.36}{}}
\@writefile{toc}{\defcounter {refsection}{0}\relax }\@writefile{toc}{\contentsline {subsubsection}{\nonumberline Pooling-Schichten}{19}{section*.37}}
\@writefile{lof}{\defcounter {refsection}{0}\relax }\@writefile{lof}{\contentsline {figure}{\numberline {\relax 3.7}{\ignorespaces Max Pooling Schicht}}{19}{figure.caption.38}}
\newlabel{fig:Pooling}{{\relax 3.7}{19}{Max Pooling Schicht}{figure.caption.38}{}}
\@writefile{toc}{\defcounter {refsection}{0}\relax }\@writefile{toc}{\contentsline {subsection}{\numberline {3.3.6}Faltungseinheit}{20}{subsection.3.3.6}}
\@writefile{toc}{\defcounter {refsection}{0}\relax }\@writefile{toc}{\contentsline {subsubsection}{\nonumberline Vollverbundene Schichten}{20}{section*.39}}
\@writefile{toc}{\defcounter {refsection}{0}\relax }\@writefile{toc}{\contentsline {subsection}{\numberline {3.3.7}Hyperparameter in neuronalen Netzen}{20}{subsection.3.3.7}}
\@writefile{toc}{\defcounter {refsection}{0}\relax }\@writefile{toc}{\contentsline {subsubsection}{\nonumberline Hyperparameter im Training}{20}{section*.40}}
\citation{PML}
\abx@aux@segm{0}{0}{PML}
\citation{PML}
\abx@aux@segm{0}{0}{PML}
\citation{batch}
\abx@aux@cite{batch}
\abx@aux@segm{0}{0}{batch}
\citation{PML}
\abx@aux@segm{0}{0}{PML}
\@writefile{toc}{\defcounter {refsection}{0}\relax }\@writefile{toc}{\contentsline {subparagraph}{\nonumberline Lernrate}{21}{section*.41}}
\@writefile{toc}{\defcounter {refsection}{0}\relax }\@writefile{toc}{\contentsline {subparagraph}{\nonumberline Anzahl der Iterationen}{21}{section*.42}}
\@writefile{toc}{\defcounter {refsection}{0}\relax }\@writefile{toc}{\contentsline {subparagraph}{\nonumberline Stapelgr\IeC {\"o}\IeC {\ss }e}{21}{section*.43}}
\@writefile{toc}{\defcounter {refsection}{0}\relax }\@writefile{toc}{\contentsline {subsubsection}{\nonumberline Hyperparameter in der Netzarchitektur}{21}{section*.44}}
\@writefile{toc}{\defcounter {refsection}{0}\relax }\@writefile{toc}{\contentsline {paragraph}{\nonumberline Aktivierungsfunktion}{21}{section*.45}}
\citation{PML}
\abx@aux@segm{0}{0}{PML}
\citation{dropout}
\abx@aux@cite{dropout}
\abx@aux@segm{0}{0}{dropout}
\citation{WI}
\abx@aux@cite{WI}
\abx@aux@segm{0}{0}{WI}
\@writefile{toc}{\defcounter {refsection}{0}\relax }\@writefile{toc}{\contentsline {subparagraph}{\nonumberline Rectified linear unit}{22}{section*.46}}
\@writefile{toc}{\defcounter {refsection}{0}\relax }\@writefile{toc}{\contentsline {subparagraph}{\nonumberline Sigmoid}{22}{section*.47}}
\@writefile{toc}{\defcounter {refsection}{0}\relax }\@writefile{toc}{\contentsline {subparagraph}{\nonumberline Anzahl der versteckten Schichten}{22}{section*.48}}
\@writefile{toc}{\defcounter {refsection}{0}\relax }\@writefile{toc}{\contentsline {subparagraph}{\nonumberline Ausfall/Dropout}{22}{section*.49}}
\@writefile{toc}{\defcounter {refsection}{0}\relax }\@writefile{toc}{\contentsline {subparagraph}{\nonumberline Initialgewichte des Netzwerks}{22}{section*.50}}
\citation{SGD}
\abx@aux@cite{SGD}
\abx@aux@segm{0}{0}{SGD}
\citation{rms}
\abx@aux@cite{rms}
\abx@aux@segm{0}{0}{rms}
\citation{rprop}
\abx@aux@cite{rprop}
\abx@aux@segm{0}{0}{rprop}
\citation{DBLP:journals/corr/abs-1212-5701}
\abx@aux@cite{DBLP:journals/corr/abs-1212-5701}
\abx@aux@segm{0}{0}{DBLP:journals/corr/abs-1212-5701}
\@writefile{toc}{\defcounter {refsection}{0}\relax }\@writefile{toc}{\contentsline {subsubsection}{\nonumberline Optimierungsalgorithmus}{23}{section*.51}}
\@writefile{toc}{\defcounter {refsection}{0}\relax }\@writefile{toc}{\contentsline {subparagraph}{\nonumberline Stochastischer Gradientenabstieg}{23}{section*.52}}
\@writefile{toc}{\defcounter {refsection}{0}\relax }\@writefile{toc}{\contentsline {subparagraph}{\nonumberline RMSProp}{23}{section*.53}}
\@writefile{toc}{\defcounter {refsection}{0}\relax }\@writefile{toc}{\contentsline {subparagraph}{\nonumberline Adadelta}{23}{section*.54}}
\citation{beltramelli2017pix2code}
\abx@aux@cite{beltramelli2017pix2code}
\abx@aux@segm{0}{0}{beltramelli2017pix2code}
\citation{beltramelli2017pix2code}
\abx@aux@segm{0}{0}{beltramelli2017pix2code}
\@writefile{toc}{\defcounter {refsection}{0}\relax }\@writefile{toc}{\contentsline {chapter}{\numberline {4}Vorhandene Systeme}{24}{chapter.4}}
\@writefile{lof}{\defcounter {refsection}{0}\relax }\@writefile{lof}{\addvspace {10\p@ }}
\@writefile{lot}{\defcounter {refsection}{0}\relax }\@writefile{lot}{\addvspace {10\p@ }}
\@writefile{lol}{\defcounter {refsection}{0}\relax }\@writefile{lol}{\addvspace {10\p@ }}
\@writefile{toc}{\defcounter {refsection}{0}\relax }\@writefile{toc}{\contentsline {section}{\numberline {4.1}Pix2Code}{24}{section.4.1}}
\newlabel{pix}{{4.1}{24}{Pix2Code}{section.4.1}{}}
\@writefile{toc}{\defcounter {refsection}{0}\relax }\@writefile{toc}{\contentsline {subsection}{\numberline {4.1.1}Funktionsweise}{24}{subsection.4.1.1}}
\@writefile{toc}{\defcounter {refsection}{0}\relax }\@writefile{toc}{\contentsline {subsection}{\numberline {4.1.2}Probleme mit Pix2Code}{24}{subsection.4.1.2}}
\@writefile{toc}{\defcounter {refsection}{0}\relax }\@writefile{toc}{\contentsline {paragraph}{\nonumberline Fehlen einer optischen Zeichenerkennung}{25}{section*.55}}
\@writefile{toc}{\defcounter {refsection}{0}\relax }\@writefile{toc}{\contentsline {paragraph}{\nonumberline Eingeschr\IeC {\"a}nkte Sprachunterst\IeC {\"u}tzung}{25}{section*.56}}
\@writefile{toc}{\defcounter {refsection}{0}\relax }\@writefile{toc}{\contentsline {paragraph}{\nonumberline Keine Klassifizierung m\IeC {\"o}glich}{25}{section*.57}}
\@writefile{toc}{\defcounter {refsection}{0}\relax }\@writefile{toc}{\contentsline {paragraph}{\nonumberline Nur M\IeC {\"o}glichkeit f\IeC {\"u}r Auszeichnungssprachcode Generierung}{25}{section*.58}}
\@writefile{toc}{\defcounter {refsection}{0}\relax }\@writefile{toc}{\contentsline {paragraph}{\nonumberline Nutzbare Teile}{26}{section*.59}}
\@writefile{toc}{\defcounter {refsection}{0}\relax }\@writefile{toc}{\contentsline {part}{\numberline {IV}Eigene Entwicklung}{27}{part.4}}
\@writefile{toc}{\defcounter {refsection}{0}\relax }\@writefile{toc}{\contentsline {chapter}{\numberline {5}Entwicklung eines eigenen neuronalen Netzes}{28}{chapter.5}}
\@writefile{lof}{\defcounter {refsection}{0}\relax }\@writefile{lof}{\addvspace {10\p@ }}
\@writefile{lot}{\defcounter {refsection}{0}\relax }\@writefile{lot}{\addvspace {10\p@ }}
\@writefile{lol}{\defcounter {refsection}{0}\relax }\@writefile{lol}{\addvspace {10\p@ }}
\@writefile{toc}{\defcounter {refsection}{0}\relax }\@writefile{toc}{\contentsline {section}{\numberline {5.1}Testdaten}{28}{section.5.1}}
\@writefile{toc}{\defcounter {refsection}{0}\relax }\@writefile{toc}{\contentsline {section}{\numberline {5.2}Testdaten Generator}{28}{section.5.2}}
\newlabel{TDG}{{5.2}{28}{Testdaten Generator}{section.5.2}{}}
\citation{stat}
\abx@aux@cite{stat}
\abx@aux@segm{0}{0}{stat}
\@writefile{toc}{\defcounter {refsection}{0}\relax }\@writefile{toc}{\contentsline {subsection}{\numberline {5.2.1}Probleme mit synthetischen Daten}{29}{subsection.5.2.1}}
\@writefile{toc}{\defcounter {refsection}{0}\relax }\@writefile{toc}{\contentsline {subsection}{\numberline {5.2.2}Implementierung}{29}{subsection.5.2.2}}
\@writefile{lof}{\defcounter {refsection}{0}\relax }\@writefile{lof}{\contentsline {figure}{\numberline {\relax 5.1}{\ignorespaces Beispiel der generierten Input Daten.}}{30}{figure.caption.60}}
\newlabel{fig:UI}{{\relax 5.1}{30}{Beispiel der generierten Input Daten}{figure.caption.60}{}}
\@writefile{toc}{\defcounter {refsection}{0}\relax }\@writefile{toc}{\contentsline {section}{\numberline {5.3}Verwendete Technologien f\IeC {\"u}r das neuronale Netz}{30}{section.5.3}}
\@writefile{toc}{\defcounter {refsection}{0}\relax }\@writefile{toc}{\contentsline {subsubsection}{\nonumberline Python}{30}{section*.61}}
\@writefile{toc}{\defcounter {refsection}{0}\relax }\@writefile{toc}{\contentsline {subsubsection}{\nonumberline Tensorflow}{31}{section*.62}}
\@writefile{toc}{\defcounter {refsection}{0}\relax }\@writefile{toc}{\contentsline {subsubsection}{\nonumberline Keras}{31}{section*.63}}
\@writefile{toc}{\defcounter {refsection}{0}\relax }\@writefile{toc}{\contentsline {section}{\numberline {5.4}Struktur des Systems}{31}{section.5.4}}
\@writefile{lof}{\defcounter {refsection}{0}\relax }\@writefile{lof}{\contentsline {figure}{\numberline {\relax 5.2}{\ignorespaces UML Diagramm des Systems}}{32}{figure.caption.64}}
\newlabel{fig:UML_System}{{\relax 5.2}{32}{UML Diagramm des Systems}{figure.caption.64}{}}
\@writefile{toc}{\defcounter {refsection}{0}\relax }\@writefile{toc}{\contentsline {subsection}{\numberline {5.4.1}Vorverarbeitung}{32}{subsection.5.4.1}}
\@writefile{toc}{\defcounter {refsection}{0}\relax }\@writefile{toc}{\contentsline {subsection}{\numberline {5.4.2}Computer Vision}{32}{subsection.5.4.2}}
\@writefile{toc}{\defcounter {refsection}{0}\relax }\@writefile{toc}{\contentsline {subsubsection}{\nonumberline Klassifizierung}{32}{section*.65}}
\@writefile{toc}{\defcounter {refsection}{0}\relax }\@writefile{toc}{\contentsline {subsubsection}{\nonumberline Optische Zeichenerkennung}{33}{section*.66}}
\@writefile{toc}{\defcounter {refsection}{0}\relax }\@writefile{toc}{\contentsline {subsection}{\numberline {5.4.3}Semantische Analyse des eingegebenen Codes}{33}{subsection.5.4.3}}
\@writefile{toc}{\defcounter {refsection}{0}\relax }\@writefile{toc}{\contentsline {subsection}{\numberline {5.4.4}Zusammenf\IeC {\"u}gen aller Teile}{33}{subsection.5.4.4}}
\citation{2014arXiv1409.1556S}
\abx@aux@cite{2014arXiv1409.1556S}
\abx@aux@segm{0}{0}{2014arXiv1409.1556S}
\@writefile{toc}{\defcounter {refsection}{0}\relax }\@writefile{toc}{\contentsline {subsection}{\numberline {5.4.5}Codegeneration}{34}{subsection.5.4.5}}
\@writefile{toc}{\defcounter {refsection}{0}\relax }\@writefile{toc}{\contentsline {subsubsection}{\nonumberline Formulare f\IeC {\"u}r den Test}{34}{section*.67}}
\@writefile{toc}{\defcounter {refsection}{0}\relax }\@writefile{toc}{\contentsline {section}{\numberline {5.5}Implementierung des CNN}{34}{section.5.5}}
\@writefile{lof}{\defcounter {refsection}{0}\relax }\@writefile{lof}{\contentsline {figure}{\numberline {\relax 5.3}{\ignorespaces Darstellung der Struktur des Netzes}}{35}{figure.caption.68}}
\newlabel{fig:Structure_CNN}{{\relax 5.3}{35}{Darstellung der Struktur des Netzes}{figure.caption.68}{}}
\@writefile{toc}{\defcounter {refsection}{0}\relax }\@writefile{toc}{\contentsline {subsection}{\numberline {5.5.1}Hyperparameter}{37}{subsection.5.5.1}}
\@writefile{toc}{\defcounter {refsection}{0}\relax }\@writefile{toc}{\contentsline {section}{\numberline {5.6}Erste Anwendung des Netzes}{37}{section.5.6}}
\@writefile{toc}{\defcounter {refsection}{0}\relax }\@writefile{toc}{\contentsline {subsection}{\numberline {5.6.1}Hyperparameter Tuning}{38}{subsection.5.6.1}}
\@writefile{toc}{\defcounter {refsection}{0}\relax }\@writefile{toc}{\contentsline {paragraph}{\nonumberline SGD}{38}{section*.69}}
\@writefile{lof}{\defcounter {refsection}{0}\relax }\@writefile{lof}{\contentsline {figure}{\numberline {\relax 5.4}{\ignorespaces Genauigkeit und Verlust mit SDG}}{38}{figure.caption.70}}
\newlabel{fig:SDG_unoptimised}{{\relax 5.4}{38}{Genauigkeit und Verlust mit SDG}{figure.caption.70}{}}
\@writefile{lof}{\defcounter {refsection}{0}\relax }\@writefile{lof}{\contentsline {figure}{\numberline {\relax 5.5}{\ignorespaces Genauigkeit und Verlust mit SDG bei 10 Epochen}}{39}{figure.caption.71}}
\newlabel{fig:SDG_10Epochs}{{\relax 5.5}{39}{Genauigkeit und Verlust mit SDG bei 10 Epochen}{figure.caption.71}{}}
\@writefile{lof}{\defcounter {refsection}{0}\relax }\@writefile{lof}{\contentsline {figure}{\numberline {\relax 5.6}{\ignorespaces Genauigkeit mit SDG und unterschiedlichen Lernraten, links mit 0.01, rechts mit 0.0001}}{39}{figure.caption.72}}
\newlabel{fig:SDG_LR}{{\relax 5.6}{39}{Genauigkeit mit SDG und unterschiedlichen Lernraten, links mit 0.01, rechts mit 0.0001}{figure.caption.72}{}}
\@writefile{toc}{\defcounter {refsection}{0}\relax }\@writefile{toc}{\contentsline {paragraph}{\nonumberline RMSprop}{39}{section*.73}}
\@writefile{lof}{\defcounter {refsection}{0}\relax }\@writefile{lof}{\contentsline {figure}{\numberline {\relax 5.7}{\ignorespaces Genauigkeit und Verlust mit RMSprop}}{40}{figure.caption.74}}
\newlabel{fig:RMSprop}{{\relax 5.7}{40}{Genauigkeit und Verlust mit RMSprop}{figure.caption.74}{}}
\@writefile{toc}{\defcounter {refsection}{0}\relax }\@writefile{toc}{\contentsline {paragraph}{\nonumberline Adadelta}{40}{section*.75}}
\@writefile{lof}{\defcounter {refsection}{0}\relax }\@writefile{lof}{\contentsline {figure}{\numberline {\relax 5.8}{\ignorespaces Genauigkeit und Verlust mit Adadelta}}{40}{figure.caption.76}}
\newlabel{fig:Adadelta}{{\relax 5.8}{40}{Genauigkeit und Verlust mit Adadelta}{figure.caption.76}{}}
\@writefile{toc}{\defcounter {refsection}{0}\relax }\@writefile{toc}{\contentsline {paragraph}{\nonumberline Test mit realen Daten}{40}{section*.77}}
\@writefile{toc}{\defcounter {refsection}{0}\relax }\@writefile{toc}{\contentsline {section}{\numberline {5.7}Codegenerierung}{41}{section.5.7}}
\@writefile{toc}{\defcounter {refsection}{0}\relax }\@writefile{toc}{\contentsline {section}{\numberline {5.8}Ergebnisse}{41}{section.5.8}}
\@writefile{toc}{\defcounter {refsection}{0}\relax }\@writefile{toc}{\contentsline {part}{\numberline {V}Fazit}{42}{part.5}}
\@writefile{toc}{\defcounter {refsection}{0}\relax }\@writefile{toc}{\contentsline {chapter}{\numberline {6}Fazit}{43}{chapter.6}}
\@writefile{lof}{\defcounter {refsection}{0}\relax }\@writefile{lof}{\addvspace {10\p@ }}
\@writefile{lot}{\defcounter {refsection}{0}\relax }\@writefile{lot}{\addvspace {10\p@ }}
\@writefile{lol}{\defcounter {refsection}{0}\relax }\@writefile{lol}{\addvspace {10\p@ }}
\@writefile{toc}{\defcounter {refsection}{0}\relax }\@writefile{toc}{\contentsline {section}{\numberline {6.1}Fehlende Teile der Arbeit}{43}{section.6.1}}
\@writefile{toc}{\defcounter {refsection}{0}\relax }\@writefile{toc}{\contentsline {paragraph}{\nonumberline Optische Zeichenerkennung}{43}{section*.78}}
\@writefile{toc}{\defcounter {refsection}{0}\relax }\@writefile{toc}{\contentsline {paragraph}{\nonumberline Codegenerierung}{43}{section*.79}}
\@writefile{toc}{\defcounter {refsection}{0}\relax }\@writefile{toc}{\contentsline {section}{\numberline {6.2}Der n\IeC {\"a}chste Schritt}{44}{section.6.2}}
\@writefile{toc}{\defcounter {refsection}{0}\relax }\@writefile{toc}{\contentsline {section}{\numberline {6.3}Zukunftsausblick}{44}{section.6.3}}
\@writefile{toc}{\defcounter {refsection}{0}\relax }\@writefile{toc}{\contentsline {part}{\numberline {VI}Appendix}{45}{part.6}}
\@writefile{toc}{\defcounter {refsection}{0}\relax }\@writefile{toc}{\contentsline {chapter}{\nonumberline Zus\IeC {\"a}tzliche Listings}{46}{chapter*.80}}
\@writefile{lof}{\defcounter {refsection}{0}\relax }\@writefile{lof}{\addvspace {10\p@ }}
\@writefile{lot}{\defcounter {refsection}{0}\relax }\@writefile{lot}{\addvspace {10\p@ }}
\@writefile{lol}{\defcounter {refsection}{0}\relax }\@writefile{lol}{\addvspace {10\p@ }}
\@writefile{toc}{\defcounter {refsection}{0}\relax }\@writefile{toc}{\contentsline {section}{\numberline {1}Netzstruktur}{46}{section.6.1}}
\newlabel{lst:net}{{6.1}{46}{Netzstruktur des selbst implementierten Netzes}{lstlisting.6.1}{}}
\@writefile{lol}{\defcounter {refsection}{0}\relax }\@writefile{lol}{\contentsline {lstlisting}{\numberline {6.1}Netzstruktur des selbst implementierten Netzes}{46}{lstlisting.6.1}}
\newlabel{lst:last}{{6.2}{47}{Letzter Trainingsschritt mit RMS Optimiser}{lstlisting.6.2}{}}
\@writefile{lol}{\defcounter {refsection}{0}\relax }\@writefile{lol}{\contentsline {lstlisting}{\numberline {6.2}Letzter Trainingsschritt mit RMS Optimiser}{47}{lstlisting.6.2}}
\@writefile{toc}{\defcounter {refsection}{0}\relax }\@writefile{toc}{\contentsline {chapter}{Verzeichnisse}{48}{chapter*.81}}
\@writefile{toc}{\defcounter {refsection}{0}\relax }\@writefile{toc}{\contentsline {chapter}{Listings}{49}{chapter*.82}}
\@writefile{toc}{\defcounter {refsection}{0}\relax }\@writefile{toc}{\contentsline {chapter}{Literatur}{51}{chapter*.83}}
\abx@aux@refcontextdefaultsdone
\abx@aux@defaultrefcontext{0}{beltramelli2017pix2code}{nty/global/}
\abx@aux@defaultrefcontext{0}{SGD}{nty/global/}
\abx@aux@defaultrefcontext{0}{over}{nty/global/}
\abx@aux@defaultrefcontext{0}{batch}{nty/global/}
\abx@aux@defaultrefcontext{0}{lin}{nty/global/}
\abx@aux@defaultrefcontext{0}{loss}{nty/global/}
\abx@aux@defaultrefcontext{0}{Goodfellow-et-al-2016}{nty/global/}
\abx@aux@defaultrefcontext{0}{rms}{nty/global/}
\abx@aux@defaultrefcontext{0}{Hopfield2554}{nty/global/}
\abx@aux@defaultrefcontext{0}{stat}{nty/global/}
\abx@aux@defaultrefcontext{0}{WI}{nty/global/}
\abx@aux@defaultrefcontext{0}{NIPS2012_4824}{nty/global/}
\abx@aux@defaultrefcontext{0}{cost}{nty/global/}
\abx@aux@defaultrefcontext{0}{rprop}{nty/global/}
\abx@aux@defaultrefcontext{0}{hold}{nty/global/}
\abx@aux@defaultrefcontext{0}{dropout}{nty/global/}
\abx@aux@defaultrefcontext{0}{PML}{nty/global/}
\abx@aux@defaultrefcontext{0}{Percep}{nty/global/}
\abx@aux@defaultrefcontext{0}{2014arXiv1409.1556S}{nty/global/}
\abx@aux@defaultrefcontext{0}{MSE}{nty/global/}
\abx@aux@defaultrefcontext{0}{DBLP:journals/corr/abs-1212-5701}{nty/global/}
\@writefile{toc}{\defcounter {refsection}{0}\relax }\@writefile{toc}{\contentsline {chapter}{\nonumberline Eidesstattliche Erkl\IeC {\"a}rung}{52}{chapter*.84}}
\@writefile{lof}{\defcounter {refsection}{0}\relax }\@writefile{lof}{\addvspace {10\p@ }}
\@writefile{lot}{\defcounter {refsection}{0}\relax }\@writefile{lot}{\addvspace {10\p@ }}
\@writefile{lol}{\defcounter {refsection}{0}\relax }\@writefile{lol}{\addvspace {10\p@ }}
\global\csname @altsecnumformattrue\endcsname
\global\@namedef{scr@dte@part@lastmaxnumwidth}{26.05598pt}
\global\@namedef{scr@dte@chapter@lastmaxnumwidth}{15.54666pt}
\global\@namedef{scr@dte@section@lastmaxnumwidth}{22.97746pt}
\global\@namedef{scr@dte@subsection@lastmaxnumwidth}{32.11626pt}
